{
	"info": {
		"_postman_id": "5dafc699-5491-4db6-a54f-f9a84359db3a",
		"name": "ts-api",
		"schema": "https://schema.getpostman.com/json/collection/v2.1.0/collection.json"
	},
	"item": [
		{
			"name": "Extra",
			"item": [
				{
					"name": "CreatePerson",
					"request": {
						"method": "POST",
						"header": [],
						"body": {
							"mode": "graphql",
							"graphql": {
								"query": "mutation {\n  createPerson(input: {first_name: \"Alex\", last_name: \"Lo\", passport: \"K87654444\"}) {\n    id\n    first_name\n    last_name\n    passport\n  }\n}",
								"variables": ""
							}
						},
						"url": {
							"raw": "http://localhost:3000/graphql",
							"protocol": "http",
							"host": [
								"localhost"
							],
							"port": "3000",
							"path": [
								"graphql"
							]
						}
					},
					"response": []
				},
				{
					"name": "Persons",
					"request": {
						"method": "POST",
						"header": [],
						"body": {
							"mode": "graphql",
							"graphql": {
								"query": "query \n{\n  persons {\n    first_name\n    last_name\n    passport\n  }\n}\n",
								"variables": ""
							}
						},
						"url": {
							"raw": "http://localhost:3000/graphql",
							"protocol": "http",
							"host": [
								"localhost"
							],
							"port": "3000",
							"path": [
								"graphql"
							]
						}
					},
					"response": []
				},
				{
					"name": "Index",
					"request": {
						"method": "POST",
						"header": [],
						"body": {
							"mode": "graphql",
							"graphql": {
								"query": "query {\n  index\n}",
								"variables": ""
							}
						},
						"url": {
							"raw": "http://localhost:3000/graphql",
							"protocol": "http",
							"host": [
								"localhost"
							],
							"port": "3000",
							"path": [
								"graphql"
							]
						}
					},
					"response": []
				},
				{
					"name": "GetProfile",
					"request": {
						"method": "GET",
						"header": [
							{
								"key": "Authorization",
								"value": "Bearer eyJhbGciOiJIUzI1NiIsInR5cCI6IkpXVCJ9.eyJ1c2VybmFtZSI6ImpvaG4iLCJzdWIiOjEsImlhdCI6MTYxNTAxODI0OSwiZXhwIjoxNjE1MDI0MjQ5fQ.dbZHJWC1N8-VTQjbRN0TOFs490-yx2K1_QVHpJbjdyI",
								"type": "text"
							}
						],
						"url": {
							"raw": "http://localhost:3000/profile",
							"protocol": "http",
							"host": [
								"localhost"
							],
							"port": "3000",
							"path": [
								"profile"
							]
						}
					},
					"response": []
				}
			]
		},
		{
			"name": "Local",
			"item": [
				{
					"name": "1-CreatePersonURL",
					"request": {
						"method": "POST",
						"header": [],
						"body": {
							"mode": "graphql",
							"graphql": {
								"query": "mutation {\n  createPersonURL(input: {\n      firstName: \"Kent\", \n      lastName: \"Lee\", \n      passport: \"K85555554\"}\n    )\n}",
								"variables": ""
							}
						},
						"url": {
							"raw": "http://localhost:3000/graphql",
							"protocol": "http",
							"host": [
								"localhost"
							],
							"port": "3000",
							"path": [
								"graphql"
							]
						}
					},
					"response": []
				},
				{
					"name": "2-Person",
					"request": {
						"auth": {
							"type": "noauth"
						},
						"method": "GET",
						"header": [],
						"url": {
							"raw": "http://localhost:3000/graphql?query=%7BgetPerson(code:%22U2FsdGVkX1Por21Ld0b1DqqjHMe2X4r4pnkI3artNPor21LdEIEtAtyX1yFBHbHPe5WRPor21LdvErW9NV%22)%7Bid,firstName,lastName,passport%7D%7D",
							"protocol": "http",
							"host": [
								"localhost"
							],
							"port": "3000",
							"path": [
								"graphql"
							],
							"query": [
								{
									"key": "query",
									"value": "%7BgetPerson(code:%22U2FsdGVkX1Por21Ld0b1DqqjHMe2X4r4pnkI3artNPor21LdEIEtAtyX1yFBHbHPe5WRPor21LdvErW9NV%22)%7Bid,firstName,lastName,passport%7D%7D"
								}
							]
						}
					},
					"response": []
				},
				{
					"name": "3-GenerateJWTTokenPrivateKeySign",
					"request": {
						"method": "POST",
						"header": [],
						"body": {
							"mode": "raw",
							"raw": "{\n     \"username\": \"6044c3c9b80fcbacff17aec0\", \n     \"password\": \"K85555554\"\n}",
							"options": {
								"raw": {
									"language": "json"
								}
							}
						},
						"url": {
							"raw": "http://localhost:3000/auth/login",
							"protocol": "http",
							"host": [
								"localhost"
							],
							"port": "3000",
							"path": [
								"auth",
								"login"
							]
						}
					},
					"response": []
				},
				{
					"name": "4-GetPersonURLWithToken",
					"request": {
						"method": "POST",
						"header": [
							{
								"key": "Authorization",
								"value": "Bearer eyJhbGciOiJIUzI1NiIsInR5cCI6IkpXVCJ9.eyJ1c2VybmFtZSI6IjYwNDRjM2M5YjgwZmNiYWNmZjE3YWVjMCIsInN1YiI6Iks4NTU1NTU1NCIsImlhdCI6MTYxNTEzMTYwNiwiZXhwIjoxNjE1MTkxNjA2fQ._ydDfQGO54UsROEK4pO3Fh3ZNSAGBw95cFDVcclRXGo",
								"type": "text"
							}
						],
						"body": {
							"mode": "graphql",
							"graphql": {
								"query": "{\n  getPersonURLWithToken(input: {\n            firstName: \"Kent\",\n            lastName: \"Lee\",\n            passport: \"K85555554\"\n      })\n}",
								"variables": ""
							}
						},
						"url": {
							"raw": "http://localhost:3000/graphql",
							"protocol": "http",
							"host": [
								"localhost"
							],
							"port": "3000",
							"path": [
								"graphql"
							]
						}
					},
					"response": []
				},
				{
					"name": "4-GetPersonURLWithTokenInvalid",
					"request": {
						"method": "POST",
						"header": [
							{
								"key": "Authorization",
								"value": "Bearer eyJhbGciOiJIUzI1NiIsInR5cCI6IkpXVCJ9.eyJ1c2VybmFtZSI6IjYwNDRkOTA5NTM1YTEyYjViZWJhN2E2ZSIsInN1YiI6Iks4NTU1NDQ1NCIsImlhdCI6MTYxNTEzMTk5MSwiZXhwIjoxNjE1MTkxOTkxfQ.O9aq59sLCeVWRzg0HqhmUu_l5kEuvVzV13zpjOisZZw",
								"type": "text"
							}
						],
						"body": {
							"mode": "graphql",
							"graphql": {
								"query": "{\n  getPersonURLWithToken(input: {\n            firstName: \"Kent\",\n            lastName: \"Lee\",\n            passport: \"K85555554\"\n      })\n}",
								"variables": ""
							}
						},
						"url": {
							"raw": "http://localhost:3000/graphql",
							"protocol": "http",
							"host": [
								"localhost"
							],
							"port": "3000",
							"path": [
								"graphql"
							]
						}
					},
					"response": []
				},
				{
					"name": "5-GetPersonWithToken",
					"request": {
						"auth": {
							"type": "noauth"
						},
						"method": "GET",
						"header": [
							{
								"key": "Authorization",
								"value": "Bearer eyJhbGciOiJIUzI1NiIsInR5cCI6IkpXVCJ9.eyJ1c2VybmFtZSI6IjYwNDRjM2M5YjgwZmNiYWNmZjE3YWVjMCIsInN1YiI6Iks4NTU1NTU1NCIsImlhdCI6MTYxNTEzMTYwNiwiZXhwIjoxNjE1MTkxNjA2fQ._ydDfQGO54UsROEK4pO3Fh3ZNSAGBw95cFDVcclRXGo",
								"type": "text"
							}
						],
						"url": {
							"raw": "http://localhost:3000/graphql?query=%7BgetPersonWithToken(code:%22U2FsdGVkX19hc7c6acSmlEqzNVEfL3gsJPor21LdcCqBPvwOKbCDqxWunka9qNUIexMl3JkWmgY%22)%7Bid,firstName,lastName,passport%7D%7D",
							"protocol": "http",
							"host": [
								"localhost"
							],
							"port": "3000",
							"path": [
								"graphql"
							],
							"query": [
								{
									"key": "query",
									"value": "%7BgetPersonWithToken(code:%22U2FsdGVkX19hc7c6acSmlEqzNVEfL3gsJPor21LdcCqBPvwOKbCDqxWunka9qNUIexMl3JkWmgY%22)%7Bid,firstName,lastName,passport%7D%7D"
								}
							]
						}
					},
					"response": []
				},
				{
					"name": "5-GetPersonWithTokenUnmatch",
					"request": {
						"auth": {
							"type": "noauth"
						},
						"method": "GET",
						"header": [
							{
								"key": "Authorization",
								"value": "Bearer eyJhbGciOiJIUzI1NiIsInR5cCI6IkpXVCJ9.eyJ1c2VybmFtZSI6IjYwNDRkOTA5NTM1YTEyYjViZWJhN2E2ZSIsInN1YiI6Iks4NTU1NDQ1NCIsImlhdCI6MTYxNTEzMTk5MSwiZXhwIjoxNjE1MTkxOTkxfQ.O9aq59sLCeVWRzg0HqhmUu_l5kEuvVzV13zpjOisZZw",
								"type": "text"
							}
						],
						"url": {
							"raw": "http://localhost:3000/graphql?query=%7BgetPersonWithToken(code:%22U2FsdGVkX19hc7c6acSmlEqzNVEfL3gsJPor21LdcCqBPvwOKbCDqxWunka9qNUIexMl3JkWmgY%22)%7Bid,firstName,lastName,passport%7D%7D",
							"protocol": "http",
							"host": [
								"localhost"
							],
							"port": "3000",
							"path": [
								"graphql"
							],
							"query": [
								{
									"key": "query",
									"value": "%7BgetPersonWithToken(code:%22U2FsdGVkX19hc7c6acSmlEqzNVEfL3gsJPor21LdcCqBPvwOKbCDqxWunka9qNUIexMl3JkWmgY%22)%7Bid,firstName,lastName,passport%7D%7D"
								}
							]
						}
					},
					"response": []
				}
			]
		},
		{
			"name": "AWS",
			"item": [
				{
					"name": "1-CreatePersonURL",
					"request": {
						"method": "POST",
						"header": [],
						"body": {
							"mode": "graphql",
							"graphql": {
								"query": "mutation {\n  createPersonURL(input: {\n      firstName: \"Kent\", \n      lastName: \"Lee\", \n      passport: \"K85555554\"}\n    )\n}",
								"variables": ""
							}
						},
						"url": {
							"raw": "${AWS}/graphql",
							"host": [
								"${AWS}"
							],
							"path": [
								"graphql"
							]
						}
					},
					"response": []
				},
				{
					"name": "2-Person",
					"request": {
						"auth": {
							"type": "noauth"
						},
						"method": "GET",
						"header": [],
						"url": {
							"raw": "http://localhost:3000/graphql?query=%7BgetPerson(code:%22U2FsdGVkX1Por21Ld0b1DqqjHMe2X4r4pnkI3artNPor21LdEIEtAtyX1yFBHbHPe5WRPor21LdvErW9NV%22)%7Bid,firstName,lastName,passport%7D%7D",
							"protocol": "http",
							"host": [
								"localhost"
							],
							"port": "3000",
							"path": [
								"graphql"
							],
							"query": [
								{
									"key": "query",
									"value": "%7BgetPerson(code:%22U2FsdGVkX1Por21Ld0b1DqqjHMe2X4r4pnkI3artNPor21LdEIEtAtyX1yFBHbHPe5WRPor21LdvErW9NV%22)%7Bid,firstName,lastName,passport%7D%7D"
								}
							]
						}
					},
					"response": []
				},
				{
					"name": "3-GenerateJWTTokenPrivateKeySign",
					"request": {
						"method": "POST",
						"header": [],
						"body": {
							"mode": "raw",
							"raw": "{\n     \"username\": \"6044c3c9b80fcbacff17aec0\", \n     \"password\": \"K85555554\"\n}",
							"options": {
								"raw": {
									"language": "json"
								}
							}
						},
						"url": {
							"raw": "http://localhost:3000/auth/login",
							"protocol": "http",
							"host": [
								"localhost"
							],
							"port": "3000",
							"path": [
								"auth",
								"login"
							]
						}
					},
					"response": []
				},
				{
					"name": "4-GetPersonURLWithToken",
					"request": {
						"method": "POST",
						"header": [
							{
								"key": "Authorization",
								"value": "Bearer eyJhbGciOiJIUzI1NiIsInR5cCI6IkpXVCJ9.eyJ1c2VybmFtZSI6IjYwNDRjM2M5YjgwZmNiYWNmZjE3YWVjMCIsInN1YiI6Iks4NTU1NTU1NCIsImlhdCI6MTYxNTEzMTYwNiwiZXhwIjoxNjE1MTkxNjA2fQ._ydDfQGO54UsROEK4pO3Fh3ZNSAGBw95cFDVcclRXGo",
								"type": "text"
							}
						],
						"body": {
							"mode": "graphql",
							"graphql": {
								"query": "{\n  getPersonURLWithToken(input: {\n            firstName: \"Kent\",\n            lastName: \"Lee\",\n            passport: \"K85555554\"\n      })\n}",
								"variables": ""
							}
						},
						"url": {
							"raw": "http://localhost:3000/graphql",
							"protocol": "http",
							"host": [
								"localhost"
							],
							"port": "3000",
							"path": [
								"graphql"
							]
						}
					},
					"response": []
				},
				{
					"name": "4-GetPersonURLWithTokenInvalid",
					"request": {
						"method": "POST",
						"header": [
							{
								"key": "Authorization",
								"value": "Bearer eyJhbGciOiJIUzI1NiIsInR5cCI6IkpXVCJ9.eyJ1c2VybmFtZSI6IjYwNDRkOTA5NTM1YTEyYjViZWJhN2E2ZSIsInN1YiI6Iks4NTU1NDQ1NCIsImlhdCI6MTYxNTEzMTk5MSwiZXhwIjoxNjE1MTkxOTkxfQ.O9aq59sLCeVWRzg0HqhmUu_l5kEuvVzV13zpjOisZZw",
								"type": "text"
							}
						],
						"body": {
							"mode": "graphql",
							"graphql": {
								"query": "{\n  getPersonURLWithToken(input: {\n            firstName: \"Kent\",\n            lastName: \"Lee\",\n            passport: \"K85555554\"\n      })\n}",
								"variables": ""
							}
						},
						"url": {
							"raw": "http://localhost:3000/graphql",
							"protocol": "http",
							"host": [
								"localhost"
							],
							"port": "3000",
							"path": [
								"graphql"
							]
						}
					},
					"response": []
				},
				{
					"name": "5-GetPersonWithToken",
					"request": {
						"auth": {
							"type": "noauth"
						},
						"method": "GET",
						"header": [
							{
								"key": "Authorization",
								"value": "Bearer eyJhbGciOiJIUzI1NiIsInR5cCI6IkpXVCJ9.eyJ1c2VybmFtZSI6IjYwNDRjM2M5YjgwZmNiYWNmZjE3YWVjMCIsInN1YiI6Iks4NTU1NTU1NCIsImlhdCI6MTYxNTEzMTYwNiwiZXhwIjoxNjE1MTkxNjA2fQ._ydDfQGO54UsROEK4pO3Fh3ZNSAGBw95cFDVcclRXGo",
								"type": "text"
							}
						],
						"url": {
							"raw": "http://localhost:3000/graphql?query=%7BgetPersonWithToken(code:%22U2FsdGVkX19hc7c6acSmlEqzNVEfL3gsJPor21LdcCqBPvwOKbCDqxWunka9qNUIexMl3JkWmgY%22)%7Bid,firstName,lastName,passport%7D%7D",
							"protocol": "http",
							"host": [
								"localhost"
							],
							"port": "3000",
							"path": [
								"graphql"
							],
							"query": [
								{
									"key": "query",
									"value": "%7BgetPersonWithToken(code:%22U2FsdGVkX19hc7c6acSmlEqzNVEfL3gsJPor21LdcCqBPvwOKbCDqxWunka9qNUIexMl3JkWmgY%22)%7Bid,firstName,lastName,passport%7D%7D"
								}
							]
						}
					},
					"response": []
				},
				{
					"name": "5-GetPersonWithTokenUnmatch",
					"request": {
						"auth": {
							"type": "noauth"
						},
						"method": "GET",
						"header": [
							{
								"key": "Authorization",
								"value": "Bearer eyJhbGciOiJIUzI1NiIsInR5cCI6IkpXVCJ9.eyJ1c2VybmFtZSI6IjYwNDRkOTA5NTM1YTEyYjViZWJhN2E2ZSIsInN1YiI6Iks4NTU1NDQ1NCIsImlhdCI6MTYxNTEzMTk5MSwiZXhwIjoxNjE1MTkxOTkxfQ.O9aq59sLCeVWRzg0HqhmUu_l5kEuvVzV13zpjOisZZw",
								"type": "text"
							}
						],
						"url": {
							"raw": "http://localhost:3000/graphql?query=%7BgetPersonWithToken(code:%22U2FsdGVkX19hc7c6acSmlEqzNVEfL3gsJPor21LdcCqBPvwOKbCDqxWunka9qNUIexMl3JkWmgY%22)%7Bid,firstName,lastName,passport%7D%7D",
							"protocol": "http",
							"host": [
								"localhost"
							],
							"port": "3000",
							"path": [
								"graphql"
							],
							"query": [
								{
									"key": "query",
									"value": "%7BgetPersonWithToken(code:%22U2FsdGVkX19hc7c6acSmlEqzNVEfL3gsJPor21LdcCqBPvwOKbCDqxWunka9qNUIexMl3JkWmgY%22)%7Bid,firstName,lastName,passport%7D%7D"
								}
							]
						}
					},
					"response": []
				}
			]
		}
	],
	"variable": [
		{
			"key": "AWS",
			"value": "AWS}"
		}
	]
}